<?xml version="1.0" encoding="utf-8"?>
<!-- Generator: Adobe Illustrator 23.0.1, SVG Export Plug-In . SVG Version: 6.00 Build 0)  -->
<svg version="1.1" id="Calque_1" xmlns="http://www.w3.org/2000/svg" xmlns:xlink="http://www.w3.org/1999/xlink" x="0px" y="0px"
	 viewBox="0 0 241.7 66.2" style="enable-background:new 0 0 241.7 66.2;" xml:space="preserve">
<style type="text/css">
	.st0{fill:#388698;}
	.st1{fill:url(#Path_31861_1_);}
	.st2{fill:url(#Path_31862_1_);}
	.st3{fill:url(#Path_31860_1_);}
	.st4{fill:url(#Path_31863_1_);}
</style>
<g>
	<g id="Calque_1-2">
		<path class="st0" d="M210.5,31.8c0-2.1,0-4.3,0-6.4c0-0.3-0.1-0.4-0.4-0.4c-0.5,0-1,0-1.5,0c-0.4,0-0.5,0.1-0.5,0.5
			c0,3.9,0,7.9,0,11.8c0,0.3-0.1,0.5-0.3,0.7c-8.3,6.4-20.3,4.8-26.6-3.5c-3.5-4.6-4.8-10.5-3.4-16.1C180.3,8.2,190.6,2,200.7,4.5
			c0.3,0.1,0.5,0.1,0.8,0.2c2.6,0.7,5.1,2,7.1,3.8c0.3,0.2,0.4,0.2,0.6,0c0.4-0.4,0.7-0.7,1.1-1c0.3-0.2,0.3-0.4,0-0.6
			c-5.2-4.7-12.5-6.5-19.4-4.7c-11.4,2.8-18.4,14.3-15.6,25.7c0.2,0.8,0.4,1.6,0.7,2.3c2.9,8.3,10.7,13.9,19.5,14.1
			c5.3,0.2,10.6-1.7,14.5-5.3c0.3-0.2,0.4-0.5,0.4-0.9C210.5,36,210.5,33.9,210.5,31.8z"/>
		<path class="st0" d="M53.6,43.8c0-0.2-0.1-0.3-0.2-0.5c-5.2-8-10.4-16-15.6-24c-0.2-0.2-0.2-0.6,0-0.9c4-5.3,8-10.6,11.9-15.9
			c0-0.1,0.2-0.2,0.1-0.5c-0.8,0-1.6,0-2.4,0c-0.3,0-0.6,0.1-0.8,0.4C42.4,8,38.2,13.7,34,19.3c-0.1,0.1-0.1,0.3-0.3,0.3v-0.5
			c0-5.5,0-11,0-16.5c0-0.1,0-0.2,0-0.3C33.7,2,33.6,2,33.4,2c-0.5,0-1,0-1.4,0c-0.5,0-0.6,0-0.6,0.6c0,13.5,0,27,0,40.5
			c0,0.1,0,0.2,0,0.3c0,0.3,0.1,0.3,0.3,0.3c0.5,0,1,0,1.5,0c0.4,0,0.5-0.1,0.5-0.5c0-6.3,0-12.6,0-18.9c0-0.5,0.2-1,0.5-1.4
			c0.6-0.7,1.2-1.5,1.8-2.2l0.3,0.4l8.4,13.1l5.9,9.2c0.1,0.2,0.1,0.3,0.4,0.3L53.6,43.8z"/>
		<path class="st0" d="M12.1,44.3c0.7,0,1.3,0,2-0.1c0.4-0.1,0.8-0.1,1.2-0.2c4.9-1.2,8.5-5.3,9.2-10.3c0.5-3.4-0.5-6.9-2.7-9.6
			c-2.3-2.6-5.2-4.6-8.5-5.7c-2-0.7-3.8-1.8-5.3-3.2c-1.8-1.6-2.6-4-2-6.4c0.9-3.5,4.4-5.6,7.9-4.8c1.6,0.4,3.1,1.4,4,2.9
			C18.2,7.3,18.2,8,18.6,8s0.9-0.3,1.4-0.5c0.7-0.3,0.7-0.3,0.4-1c-1.7-3.6-5.7-5.6-9.6-4.8C7.5,2.2,4.9,4.5,4,7.7
			c-1.1,3.1-0.3,6.5,2,8.8c1.9,1.8,4.1,3.2,6.6,4c2.1,0.8,4.1,1.9,5.9,3.4c4.5,3.3,5.4,9.6,2,14.1s-9.6,5.4-14.1,2
			c-2.1-1.6-3.5-4-3.9-6.6c0-0.3-0.2-0.3-0.4-0.2c-0.4,0.2-0.9,0.3-1.3,0.5c-0.6,0.2-0.6,0.2-0.5,0.9C1.3,40.2,6.3,44.2,12.1,44.3z"
			/>
		<path class="st0" d="M228.9,44.3c0.9,0,1.8-0.1,2.7-0.3c5.1-1.1,8.9-5.3,9.6-10.5c0.5-3.4-0.5-6.9-2.8-9.5s-5.2-4.5-8.5-5.6
			c-2-0.7-3.8-1.8-5.4-3.2c-1.8-1.6-2.6-4-1.9-6.3c0.6-2.7,2.9-4.7,5.7-4.9c2.8-0.3,5.4,1.3,6.6,3.8c0.1,0.3,0.2,0.4,0.6,0.2
			c0.4-0.2,0.8-0.4,1.3-0.5c0.4-0.1,0.5-0.3,0.3-0.7c0-0.1-0.1-0.2-0.1-0.2c-1.7-3.6-5.7-5.6-9.6-4.8c-3.2,0.5-5.9,2.8-6.8,6
			c-1.1,3.1-0.3,6.6,2.1,8.8c1.8,1.8,4.1,3.2,6.6,4c2.1,0.8,4.1,1.9,5.9,3.3c2.9,2.2,4.4,5.8,3.9,9.4c-0.8,5.5-5.9,9.4-11.5,8.6
			c-0.1,0-0.2,0-0.2,0c-4.2-0.8-7.4-4.2-8.1-8.4c0-0.3-0.1-0.3-0.4-0.2c-0.4,0.2-0.9,0.3-1.3,0.5c-0.7,0.2-0.7,0.2-0.5,0.9
			C218.1,40.2,223.1,44.3,228.9,44.3z"/>
		<path class="st0" d="M74.1,22.9c0,6.8,0,13.5,0,20.3c0,0.4,0.1,0.5,0.5,0.5c5.8,0,11.7,0,17.5,0h0.2c0.2,0,0.3-0.1,0.3-0.3
			c0-0.5,0-1,0-1.6s-0.1-0.5-0.5-0.5c-5,0-10,0-15,0c-0.7,0-0.6,0.1-0.6-0.6c0-12.6,0-25.2,0-37.9c0-0.1,0-0.2,0-0.3
			C76.6,2.1,76.4,1.9,76,2c-0.4,0-0.9,0-1.3,0s-0.6,0.1-0.6,0.5C74.1,9.4,74.1,16.2,74.1,22.9z"/>
		<path class="st0" d="M100.4,22.9c0,6.8,0,13.6,0,20.4c0,0.4,0.1,0.5,0.5,0.5c5.8,0,11.7,0,17.5,0h0.2c0.2,0,0.3-0.1,0.3-0.3
			c0-0.5,0-1,0-1.6s-0.1-0.5-0.5-0.5c-5,0-10.1,0-15.1,0c-0.7,0-0.6,0.1-0.6-0.6c0-12.7,0-25.3,0-38c0-0.1,0-0.2,0-0.4
			c0-0.3-0.1-0.4-0.4-0.3c-0.5,0-0.9,0-1.4,0c-0.7,0-0.6-0.1-0.6,0.6C100.4,9.4,100.4,16.1,100.4,22.9z"/>
		<path class="st0" d="M64.2,22.9c0-6.8,0-13.5,0-20.3c0-0.1,0-0.2,0-0.3c0-0.2-0.1-0.3-0.3-0.3c-0.5,0-1,0-1.5,0
			c-0.7,0-0.6-0.1-0.6,0.6c0,13.5,0,27,0,40.5v0.1c0,0.3,0,0.5,0.4,0.5c0.5,0,0.9,0,1.4,0c0.4,0,0.5-0.1,0.5-0.5
			C64.2,36.5,64.2,29.7,64.2,22.9z"/>
		<path class="st0" d="M18.3,7.9"/>
		
			<linearGradient id="Path_31861_1_" gradientUnits="userSpaceOnUse" x1="-8047.7983" y1="893.1969" x2="-8047.9883" y2="893.1969" gradientTransform="matrix(64.35 -2.000000e-02 3.000000e-02 101.59 517988.6875 -90871.6406)">
			<stop  offset="0" style="stop-color:#1A437E"/>
			<stop  offset="1" style="stop-color:#6BBFA5"/>
		</linearGradient>
		<path id="Path_31861" class="st1" d="M138.8,19.5c0.1,1.2,2.7,10.6,12.1,8.3c0,0.7,0.3,11.3,0.1,11.1
			C143.1,35,139,28.6,138.8,19.5z"/>
		
			<linearGradient id="Path_31862_1_" gradientUnits="userSpaceOnUse" x1="-8170.6831" y1="887.2592" x2="-8170.7832" y2="887.1193" gradientTransform="matrix(139.33 -4.000000e-02 4.000000e-02 150.55 1138547.125 -133837.2344)">
			<stop  offset="0" style="stop-color:#1A437E"/>
			<stop  offset="1" style="stop-color:#6BBFA5"/>
		</linearGradient>
		<path id="Path_31862" class="st2" d="M150.9,44.2c-10.1,0.8-20.9-4.3-25.8-16.8c9.2-9.6,14.1-10.9,14.1-11
			c-0.6,9.4,2.2,17.5,11.6,22.3C150.8,38.7,150.9,44.2,150.9,44.2z"/>
		
			<linearGradient id="Path_31860_1_" gradientUnits="userSpaceOnUse" x1="-8175.4604" y1="889.2715" x2="-8175.5303" y2="889.0815" gradientTransform="matrix(146.37 -4.000000e-02 4.000000e-02 134.06 1196745.75 -119514.8203)">
			<stop  offset="0" style="stop-color:#1A437E"/>
			<stop  offset="1" style="stop-color:#6BBFA5"/>
		</linearGradient>
		<path id="Path_31860" class="st3" d="M130,2.5c6.6,1.1,10.5,3.2,13.5,6.1c6.3,6,7,15.2,7,15.2s-1.9-5.8-5.4-7.5
			c-5.4-2.6-12.7,3.6-20.1,11c-0.4-1.3-1.8-17.5-1.8-20.9C123.3,6.2,130,2.5,130,2.5z"/>
		
			<linearGradient id="Path_31863_1_" gradientUnits="userSpaceOnUse" x1="-8203.1875" y1="882.6384" x2="-8203.0469" y2="882.8085" gradientTransform="matrix(200.36 -5.000000e-02 6.000000e-02 238.56 1643685.125 -210957.5781)">
			<stop  offset="0" style="stop-color:#1A437E"/>
			<stop  offset="1" style="stop-color:#6BBFA5"/>
		</linearGradient>
		<path id="Path_31863" class="st4" d="M150.9,44.2C150,32.5,155.5,6.6,130,2.6c2.2-1,4.5-1.8,6.9-2.4c25.8-2.4,31.4,19.6,30,37.6
			C166.9,37.8,163.4,40.8,150.9,44.2z"/>
	</g>
</g>
<g>
	<path class="st0" d="M0,53.4h2v10.8h3.3V66H0V53.4z"/>
	<path class="st0" d="M8.8,53.4h5.4v1.8h-3.4v3.3h2.7v1.8h-2.7v3.9h3.4V66H8.8V53.4z"/>
	<path class="st0" d="M19.5,53.4h2.7L24.2,66h-2l-0.4-2.5v0h-2.2L19.3,66h-1.8L19.5,53.4z M21.7,61.8l-0.9-6.2h0l-0.9,6.2H21.7z"/>
	<path class="st0" d="M27.8,53.4h2.9c1,0,1.8,0.2,2.2,0.7c0.5,0.5,0.7,1.2,0.7,2.2v0.8c0,1.3-0.4,2.1-1.3,2.5v0
		c0.5,0.1,0.8,0.4,1,0.9c0.2,0.4,0.3,1,0.3,1.8v2.2c0,0.4,0,0.7,0,0.9c0,0.2,0.1,0.4,0.2,0.7h-2c-0.1-0.2-0.1-0.4-0.1-0.6
		c0-0.2,0-0.5,0-1v-2.3c0-0.6-0.1-1-0.3-1.2c-0.2-0.2-0.5-0.3-1-0.3h-0.7V66h-2V53.4z M30.5,58.8c0.4,0,0.7-0.1,0.9-0.3
		c0.2-0.2,0.3-0.5,0.3-1v-1c0-0.5-0.1-0.8-0.2-1c-0.2-0.2-0.4-0.3-0.8-0.3h-0.9v3.6H30.5z"/>
	<path class="st0" d="M37.7,53.4h2.5l1.9,7.5h0v-7.5h1.8V66h-2l-2.4-9.2h0V66h-1.8V53.4z"/>
	<path class="st0" d="M48,53.4h2V66h-2V53.4z"/>
	<path class="st0" d="M54.1,53.4h2.5l1.9,7.5h0v-7.5h1.8V66h-2l-2.4-9.2h0V66h-1.8V53.4z"/>
	<path class="st0" d="M65,65.3c-0.5-0.5-0.8-1.3-0.8-2.3v-6.6c0-1,0.3-1.8,0.8-2.3s1.2-0.8,2.2-0.8s1.7,0.3,2.2,0.8
		c0.5,0.5,0.8,1.3,0.8,2.3v1.1h-1.9v-1.2c0-0.8-0.3-1.2-1-1.2s-1,0.4-1,1.2v6.9c0,0.8,0.3,1.2,1,1.2s1-0.4,1-1.2v-2.5h-1v-1.8h2.9
		V63c0,1-0.3,1.8-0.8,2.3c-0.5,0.5-1.2,0.8-2.2,0.8S65.5,65.9,65,65.3z"/>
	<path class="st0" d="M79.6,53.4h2.8l1.3,9h0l1.3-9h2.8V66h-1.9v-9.5h0L84.5,66h-1.7l-1.4-9.5h0V66h-1.7V53.4z"/>
	<path class="st0" d="M93.4,53.4h2.7L98.2,66h-2l-0.4-2.5v0h-2.2L93.2,66h-1.8L93.4,53.4z M95.6,61.8l-0.9-6.2h0l-0.9,6.2H95.6z"/>
	<path class="st0" d="M101.8,53.4h2.5l1.9,7.5h0v-7.5h1.8V66h-2l-2.4-9.2h0V66h-1.8V53.4z"/>
	<path class="st0" d="M113.6,53.4h2.7l2.1,12.6h-2l-0.4-2.5v0h-2.2l-0.4,2.5h-1.8L113.6,53.4z M115.8,61.8l-0.9-6.2h0l-0.9,6.2
		H115.8z"/>
	<path class="st0" d="M122.5,65.3c-0.5-0.5-0.8-1.3-0.8-2.3v-6.6c0-1,0.3-1.8,0.8-2.3s1.2-0.8,2.2-0.8s1.7,0.3,2.2,0.8
		s0.8,1.3,0.8,2.3v1.1h-1.9v-1.2c0-0.8-0.3-1.2-1-1.2c-0.7,0-1,0.4-1,1.2v6.9c0,0.8,0.3,1.2,1,1.2c0.7,0,1-0.4,1-1.2v-2.5h-1v-1.8
		h2.9V63c0,1-0.3,1.8-0.8,2.3s-1.2,0.8-2.2,0.8S123,65.9,122.5,65.3z"/>
	<path class="st0" d="M131.5,53.4h5.4v1.8h-3.4v3.3h2.7v1.8h-2.7v3.9h3.4V66h-5.4V53.4z"/>
	<path class="st0" d="M140.7,53.4h2.8l1.3,9h0l1.3-9h2.8V66H147v-9.5h0l-1.4,9.5h-1.7l-1.4-9.5h0V66h-1.7V53.4z"/>
	<path class="st0" d="M153,53.4h5.4v1.8H155v3.3h2.7v1.8H155v3.9h3.4V66H153V53.4z"/>
	<path class="st0" d="M162.2,53.4h2.5l1.9,7.5h0v-7.5h1.8V66h-2l-2.4-9.2h0V66h-1.8V53.4z"/>
	<path class="st0" d="M174,55.2H172v-1.8h6.1v1.8H176V66h-2V55.2z"/>
	<path class="st0" d="M187.6,65.3c-0.5-0.5-0.7-1.3-0.7-2.3v-0.7h1.9v0.9c0,0.8,0.3,1.2,1,1.2c0.3,0,0.6-0.1,0.8-0.3
		c0.2-0.2,0.3-0.5,0.3-1c0-0.5-0.1-1-0.4-1.4c-0.2-0.4-0.7-0.9-1.3-1.4c-0.8-0.7-1.4-1.4-1.7-2s-0.5-1.2-0.5-2c0-1,0.3-1.8,0.8-2.3
		c0.5-0.5,1.2-0.8,2.2-0.8c0.9,0,1.7,0.3,2.2,0.8s0.7,1.3,0.7,2.3v0.5h-1.9v-0.6c0-0.4-0.1-0.7-0.3-0.9c-0.2-0.2-0.4-0.3-0.7-0.3
		c-0.7,0-1,0.4-1,1.2c0,0.5,0.1,0.9,0.4,1.3c0.2,0.4,0.7,0.9,1.3,1.4c0.8,0.7,1.4,1.4,1.7,2c0.3,0.6,0.5,1.3,0.5,2.1
		c0,1-0.3,1.8-0.8,2.4c-0.5,0.6-1.3,0.8-2.2,0.8C188.8,66.2,188.1,65.9,187.6,65.3z"/>
	<path class="st0" d="M198.2,60.6l-2.4-7.2h2.1l1.4,4.6h0l1.3-4.6h1.9l-2.4,7.2V66h-2V60.6z"/>
	<path class="st0" d="M206.2,65.3c-0.5-0.5-0.7-1.3-0.7-2.3v-0.7h1.9v0.9c0,0.8,0.3,1.2,1,1.2c0.3,0,0.6-0.1,0.8-0.3
		c0.2-0.2,0.3-0.5,0.3-1c0-0.5-0.1-1-0.4-1.4c-0.2-0.4-0.7-0.9-1.3-1.4c-0.8-0.7-1.4-1.4-1.7-2s-0.5-1.2-0.5-2c0-1,0.3-1.8,0.8-2.3
		c0.5-0.5,1.2-0.8,2.2-0.8c0.9,0,1.7,0.3,2.2,0.8s0.7,1.3,0.7,2.3v0.5h-1.9v-0.6c0-0.4-0.1-0.7-0.3-0.9c-0.2-0.2-0.4-0.3-0.7-0.3
		c-0.7,0-1,0.4-1,1.2c0,0.5,0.1,0.9,0.4,1.3c0.2,0.4,0.7,0.9,1.3,1.4c0.8,0.7,1.4,1.4,1.7,2c0.3,0.6,0.5,1.3,0.5,2.1
		c0,1-0.3,1.8-0.8,2.4c-0.5,0.6-1.3,0.8-2.2,0.8C207.4,66.2,206.7,65.9,206.2,65.3z"/>
	<path class="st0" d="M216.7,55.2h-2.1v-1.8h6.1v1.8h-2.1V66h-2V55.2z"/>
	<path class="st0" d="M224.3,53.4h5.4v1.8h-3.4v3.3h2.7v1.8h-2.7v3.9h3.4V66h-5.4V53.4z"/>
	<path class="st0" d="M233.5,53.4h2.8l1.3,9h0l1.3-9h2.8V66h-1.9v-9.5h0l-1.4,9.5h-1.7l-1.4-9.5h0V66h-1.7V53.4z"/>
</g>
</svg>
